In-class Exercise 9
…
usenet_words <- cleaned_text %>%
  unnest_tokens(word, text) %>%
  filter(str_detect(word, "[a-z']$"),
         !word %in% stop_words$word)

usenet_words %>%
  count(word, sort = TRUE)

# A tibble: 5,542 x 2
   word           n
   <chr>      <int>
 1 people        57
 2 time          50
 3 jesus         47
 4 god           44
 5 message       40
 6 br            27
 7 bible         23
 8 drive         23
 9 homosexual    23
10 read          22
# ... with 5,532 more rows
…
